<define-tag pagetitle>DSA-4356-1 netatalk</define-tag>
<define-tag report_date>2018-12-20</define-tag>
<define-tag secrefs>CVE-2018-1160 Bug#916930</define-tag>
<define-tag packages>netatalk</define-tag>
<define-tag isvulnerable>yes</define-tag>
<define-tag fixed>yes</define-tag>
<define-tag fixed-section>no</define-tag>

#use wml::debian::security



</dl>
