<define-tag pagetitle>DLA-1119-1 otrs2</define-tag>
<define-tag report_date>2017-9-30</define-tag>
<define-tag secrefs>CVE-2014-1695 CVE-2014-2553 CVE-2014-2554 CVE-2017-14635 Bug#876462</define-tag>
<define-tag packages>otrs2</define-tag>
<define-tag isvulnerable>yes</define-tag>
<define-tag fixed>yes</define-tag>
<define-tag fixed-section>no</define-tag>

#use wml::debian::security

