<define-tag pagetitle>DLA-1147-1 exiv2</define-tag>
<define-tag report_date>2017-10-26</define-tag>
<define-tag secrefs>CVE-2017-11591 CVE-2017-11683 CVE-2017-14859 CVE-2017-14862 CVE-2017-14864 Bug#876893</define-tag>
<define-tag packages>exiv2</define-tag>
<define-tag isvulnerable>yes</define-tag>
<define-tag fixed>yes</define-tag>
<define-tag fixed-section>no</define-tag>

#use wml::debian::security

