<define-tag pagetitle>DLA-926-1 batik</define-tag>
<define-tag report_date>2017-4-29</define-tag>
<define-tag secrefs>CVE-2017-5662 Bug#860566</define-tag>
<define-tag packages>batik</define-tag>
<define-tag isvulnerable>yes</define-tag>
<define-tag fixed>yes</define-tag>
<define-tag fixed-section>no</define-tag>

#use wml::debian::security

