<define-tag pagetitle>DLA-1123-1 golang</define-tag>
<define-tag report_date>2017-10-6</define-tag>
<define-tag secrefs>CVE-2017-1000098</define-tag>
<define-tag packages>golang</define-tag>
<define-tag isvulnerable>yes</define-tag>
<define-tag fixed>yes</define-tag>
<define-tag fixed-section>no</define-tag>

#use wml::debian::security

