<define-tag pagetitle>DLA-1240-1 ming</define-tag>
<define-tag report_date>2018-1-11</define-tag>
<define-tag secrefs>CVE-2017-11732 CVE-2017-16883 CVE-2017-16898</define-tag>
<define-tag packages>ming</define-tag>
<define-tag isvulnerable>yes</define-tag>
<define-tag fixed>yes</define-tag>
<define-tag fixed-section>no</define-tag>

#use wml::debian::security

