<define-tag pagetitle>DLA-1609-1 libapache-mod-jk</define-tag>
<define-tag report_date>2018-12-17</define-tag>
<define-tag secrefs>CVE-2018-11759</define-tag>
<define-tag packages>libapache-mod-jk</define-tag>
<define-tag isvulnerable>yes</define-tag>
<define-tag fixed>yes</define-tag>
<define-tag fixed-section>no</define-tag>

#use wml::debian::security

