<define-tag pagetitle>DLA-1468-1 fuse</define-tag>
<define-tag report_date>2018-8-15</define-tag>
<define-tag secrefs>CVE-2018-10906</define-tag>
<define-tag packages>fuse</define-tag>
<define-tag isvulnerable>yes</define-tag>
<define-tag fixed>yes</define-tag>
<define-tag fixed-section>no</define-tag>

#use wml::debian::security

