<define-tag pagetitle>DLA-1702-1 advancecomp</define-tag>
<define-tag report_date>2019-3-2</define-tag>
<define-tag secrefs>CVE-2018-1056 CVE-2019-9210 Bug#889270 Bug#923416</define-tag>
<define-tag packages>advancecomp</define-tag>
<define-tag isvulnerable>yes</define-tag>
<define-tag fixed>yes</define-tag>
<define-tag fixed-section>no</define-tag>

#use wml::debian::security

