<define-tag pagetitle>DLA-1748-1 apache2</define-tag>
<define-tag report_date>2019-04-03</define-tag>
<define-tag secrefs>CVE-2019-0217 CVE-2019-0220</define-tag>
<define-tag packages>apache2</define-tag>
<define-tag isvulnerable>yes</define-tag>
<define-tag fixed>yes</define-tag>
<define-tag fixed-section>no</define-tag>

#use wml::debian::security

