<define-tag pagetitle>DLA-460-1 file</define-tag>
<define-tag report_date>2016-5-7</define-tag>
<define-tag secrefs>CVE-2015-8865</define-tag>
<define-tag packages>file</define-tag>
<define-tag isvulnerable>yes</define-tag>
<define-tag fixed>yes</define-tag>
<define-tag fixed-section>no</define-tag>

#use wml::debian::security

