<define-tag pagetitle>DLA-597-1 libupnp</define-tag>
<define-tag report_date>2016-8-18</define-tag>
<define-tag secrefs>CVE-2016-6255 Bug#831857</define-tag>
<define-tag packages>libupnp</define-tag>
<define-tag isvulnerable>yes</define-tag>
<define-tag fixed>yes</define-tag>
<define-tag fixed-section>no</define-tag>

#use wml::debian::security

