<define-tag pagetitle>DLA-515-1 libav</define-tag>
<define-tag report_date>2016-6-14</define-tag>
<define-tag secrefs>CVE-2016-3062</define-tag>
<define-tag packages>libav</define-tag>
<define-tag isvulnerable>yes</define-tag>
<define-tag fixed>yes</define-tag>
<define-tag fixed-section>no</define-tag>

#use wml::debian::security

