<define-tag pagetitle>DLA-760-1 spip</define-tag>
<define-tag report_date>2016-12-24</define-tag>
<define-tag secrefs>CVE-2016-9997 CVE-2016-9998 Bug#848641</define-tag>
<define-tag packages>spip</define-tag>
<define-tag isvulnerable>yes</define-tag>
<define-tag fixed>yes</define-tag>
<define-tag fixed-section>no</define-tag>

#use wml::debian::security

