<define-tag pagetitle>DLA-739-1 jasper</define-tag>
<define-tag report_date>2016-12-10</define-tag>
<define-tag secrefs>CVE-2016-8654 CVE-2016-8691 CVE-2016-8692 CVE-2016-8693 CVE-2016-8882 CVE-2016-8883 CVE-2016-8887 CVE-2016-9560</define-tag>
<define-tag packages>jasper</define-tag>
<define-tag isvulnerable>yes</define-tag>
<define-tag fixed>yes</define-tag>
<define-tag fixed-section>no</define-tag>

#use wml::debian::security

